[
  {
    "name": "minife",
    "cpu": 1.5,
    "ram": 4096,
    "watts": 49.95,
    "class_to_watts": {
      "A": 54.50,
      "B": 43.13,
      "C": 49.95
    },
    "image": "rdelvalle/minife:electron1",
    "cmd": "cd src && mpirun -np 3 miniFE.x -nx 100 -ny 100 -nz 100",
    "inst": 20,
    "tolerance": 0.02,
    "secondsToDeadline": 100
  }
]
